# 2970
# 990
v -229.996078 -263.722839 94.501053
v -229.892670 -265.604614 98.907570
v -228.736969 -267.469543 95.377281
v -227.214798 -267.119354 98.263130
v -228.258026 -258.735809 99.499504
v -230.999908 -261.158783 98.565811
v -225.096161 -267.147278 94.162346
v -227.481979 -263.789124 89.783218
v -227.115417 -267.255981 91.301277
v -227.276688 -257.982666 89.500000
v -230.509323 -260.783783 90.617935
v -231.239105 -258.362946 94.886848
v -225.463913 -262.926025 99.499992
v -223.341782 -264.315918 97.650742
v -220.775681 -259.837158 98.534866
v -224.502090 -266.934143 90.072815
v -221.797836 -264.199524 91.156326
v -230.518311 -255.036301 98.694939
v -222.664383 -257.260193 99.500000
v -227.195419 -253.254471 90.004074
v -229.555649 -253.650070 94.765877
v -230.478470 -256.275391 90.553047
v -222.999817 -261.466095 89.502594
v -222.016174 -255.494614 89.500000
v -226.057098 -250.760788 94.030823
v -221.720993 -251.459930 99.500000
v -226.713318 -253.632233 99.498878
v -219.004333 -259.580780 90.226738
v -220.702164 -261.803101 94.296547
v -217.985718 -254.936386 98.954071
v -218.221619 -257.606018 94.403442
v -226.304520 -250.126343 98.537621
v -222.502594 -247.817123 94.655708
v -221.965927 -247.256912 98.828873
v -217.003860 -248.913635 99.732430
v -216.574326 -255.369827 90.195488
v -223.332626 -250.125366 89.968857
v -219.529800 -246.817368 90.422371
v -218.278015 -244.695312 94.983932
v -215.327377 -247.052811 89.500084
v -218.559082 -251.264572 89.500000
v -214.067276 -247.016312 102.121063
v -214.763626 -250.572250 99.558502
v -211.270645 -247.282745 99.297485
v -215.452637 -253.565765 94.668808
v -215.552475 -243.243469 90.592354
v -218.187927 -244.880753 98.960297
v -213.967239 -251.080688 90.452530
v -211.700378 -246.449478 90.646736
v -212.101364 -242.321793 89.509773
v -213.514297 -241.815567 103.151703
v -215.282730 -245.476959 101.547348
v -210.416397 -244.902557 103.224144
v -207.527481 -244.806900 99.476143
v -212.215881 -249.320084 95.123619
v -210.097504 -244.963165 94.000488
v -207.418243 -245.974670 95.909340
v -215.401962 -240.830124 94.501762
v -215.606308 -241.707687 99.234924
v -211.264709 -237.261398 103.392273
v -213.625977 -245.052979 104.447517
v -209.817368 -241.206451 104.500000
v -203.652573 -242.757690 99.141838
v -208.734344 -241.633453 90.913963
v -213.218689 -238.414810 90.408539
v -212.972504 -235.838699 94.271317
v -210.255753 -234.072800 90.395523
v -214.890915 -237.499969 97.386948
v -211.534561 -234.073090 99.228035
v -212.934341 -238.177307 99.803673
v -206.856613 -237.400818 91.333275
v -209.346161 -237.354919 89.505623
v -207.501297 -233.292526 91.070312
v -204.458298 -239.505890 104.490532
v -206.184631 -242.566772 103.269768
v -203.428970 -243.162231 95.327942
v -200.733078 -239.761185 96.752129
v -202.507767 -238.430710 94.519493
v -206.726242 -241.548843 94.373169
v -206.436630 -228.674286 95.914062
v -209.742432 -232.212738 94.634521
v -209.997986 -232.341278 103.392273
v -208.063217 -235.842880 104.499268
v -203.588287 -234.743546 104.920105
v -201.573212 -240.354721 102.558334
v -198.716141 -237.664871 99.890495
v -205.873367 -235.693604 94.141518
v -206.312454 -231.410477 94.406448
v -209.094162 -229.915344 99.628624
v -208.033432 -228.461212 103.435677
v -206.123779 -230.760223 104.502258
v -197.697083 -236.767227 108.294746
v -200.763199 -237.434219 105.389732
v -197.477982 -237.446350 103.719582
v -194.077637 -235.009781 100.898689
v -197.579483 -233.860535 99.428024
v -201.590530 -232.822784 94.523331
v -199.770065 -235.104019 96.415573
v -202.692413 -228.205032 95.360481
v -201.188080 -226.980453 99.331543
v -204.917816 -227.129349 100.081909
v -203.727173 -227.228439 104.519966
v -203.248627 -231.099228 107.109787
v -202.092667 -235.191589 108.713669
v -193.725128 -234.369751 109.916656
v -193.420212 -235.386917 105.546822
v -189.372894 -233.633408 105.133003
v -197.316696 -228.910553 99.497902
v -199.953476 -230.793701 97.280876
v -200.465363 -225.346512 102.849731
v -199.235641 -224.773178 107.412590
v -202.118500 -227.242188 108.751091
v -197.817749 -226.193283 110.186150
v -196.067230 -222.584244 110.200676
v -200.477051 -230.257675 109.498657
v -198.055801 -234.191315 109.501808
v -196.488083 -230.647400 110.813477
v -184.724197 -235.230667 111.309227
v -189.444519 -234.463135 113.717422
v -189.557892 -234.786728 109.298660
v -185.865280 -230.818207 105.966370
v -192.132660 -231.944748 103.215118
v -195.589172 -224.002167 105.108688
v -196.456863 -225.624725 100.789429
v -193.409607 -228.324326 100.876534
v -193.003632 -227.025406 104.193771
v -193.419083 -231.927475 99.659447
v -190.461273 -224.600433 105.729828
v -196.157700 -228.337067 114.119438
v -194.342590 -232.756714 113.719818
v -184.675003 -234.945633 115.999924
v -186.007751 -233.048523 109.225197
v -188.849060 -229.236832 104.502991
v -186.675476 -227.411743 106.572212
v -184.335358 -228.743561 109.317200
v -192.317383 -222.585571 109.731911
v -187.671768 -223.759399 109.770676
v -196.641083 -223.741714 113.740120
v -193.360519 -221.866058 113.677780
v -192.160858 -225.284943 114.553108
v -191.120682 -230.309479 114.530998
v -188.183517 -232.009811 116.817177
v -185.158508 -233.278000 119.381798
v -179.516159 -236.498032 116.091301
v -180.356308 -234.756302 112.723122
v -176.489426 -235.075180 114.512711
v -177.988571 -231.645538 111.904785
v -181.138138 -232.988968 109.563110
v -189.272934 -222.468353 114.072807
v -186.582458 -221.810471 118.173828
v -189.763687 -223.942505 118.081055
v -186.296982 -224.824585 119.508995
v -189.686447 -227.465790 117.157410
v -186.593628 -229.238632 119.513977
v -183.813156 -226.052551 122.020958
v -181.764206 -235.171722 120.665955
v -174.673019 -237.925156 116.460709
v -181.401184 -233.406799 124.253502
v -178.199158 -236.495056 124.501305
v -174.351974 -231.759232 115.119476
v -177.768082 -228.541336 114.815750
v -179.729935 -228.855408 110.346436
v -183.371399 -225.233765 110.542305
v -185.184860 -222.687927 114.423111
v -182.594406 -223.542816 118.817619
v -181.551102 -226.905472 124.489098
v -183.881378 -230.275589 122.701118
v -177.861801 -238.441208 120.250771
v -171.996857 -236.117783 115.716064
v -172.417511 -233.031036 118.612740
v -175.305527 -228.632401 118.934921
v -181.115585 -225.245377 114.736450
v -179.775604 -223.754288 122.845627
v -178.675537 -224.804855 119.363808
v -175.534821 -240.150375 124.327744
v -172.480850 -242.907013 121.445076
v -174.301468 -240.484314 119.639771
v -170.894653 -237.052383 119.230186
v -177.848404 -232.439392 127.699013
v -178.591858 -229.961517 124.681656
v -175.831390 -236.537689 128.614349
v -168.176010 -232.910553 120.233658
v -176.351578 -225.492828 124.347931
v -172.306686 -227.200165 124.832436
v -174.509995 -225.298828 120.893562
v -176.515854 -228.367706 127.617706
v -173.762009 -227.317337 128.801620
v -169.986267 -241.269714 131.956268
v -172.681198 -243.121017 125.976166
v -172.948059 -240.381241 129.159515
v -169.726364 -245.563141 125.036087
v -170.330322 -244.783783 129.080902
v -167.731720 -243.214920 122.474800
v -168.899765 -241.363327 119.540054
v -166.110458 -237.042679 120.247681
v -165.548874 -241.172485 121.288666
v -170.894516 -228.920456 120.260742
v -172.172562 -236.212128 131.196442
v -171.586395 -232.300278 131.759186
v -174.400284 -231.815872 129.503311
v -170.415680 -238.339050 134.261444
v -167.955566 -245.559448 132.859344
v -166.257812 -248.676666 124.858788
v -160.967148 -240.936432 125.383568
v -162.427185 -236.413834 128.261612
v -163.981781 -238.236008 124.319710
v -165.590408 -234.152191 124.527985
v -169.730255 -229.724625 129.063583
v -168.444046 -230.424927 124.655334
v -170.275391 -233.713181 134.452179
v -168.172379 -230.868484 133.213318
v -166.767044 -242.255081 134.498734
v -164.643463 -232.800705 133.882523
v -164.653763 -239.947556 136.322433
v -164.726166 -250.569000 131.860886
v -167.214615 -248.222855 128.696518
v -162.512268 -249.400848 124.665520
v -164.301559 -243.913025 124.474129
v -165.123657 -232.216156 129.811981
v -163.269958 -235.521301 136.424637
v -166.161865 -236.605759 134.612335
v -164.797424 -237.144287 138.417221
v -162.900131 -242.018173 139.358795
v -164.759720 -247.103516 134.394394
v -163.348648 -244.600143 136.597382
v -161.650055 -247.357330 139.191055
v -163.231323 -254.366501 130.270233
v -162.500748 -254.927155 134.490646
v -164.016159 -251.158279 127.290909
v -160.695251 -245.375778 126.073792
v -161.362076 -249.911713 127.574982
v -160.671890 -252.386215 129.459000
v -159.557236 -245.965469 129.332031
v -159.680496 -240.341980 129.456055
v -156.629837 -243.486710 130.261948
v -161.028015 -236.246582 132.686752
v -157.661621 -240.399902 133.994125
v -162.010986 -237.194672 139.344803
v -157.440399 -245.824188 139.657227
v -158.883545 -241.002075 139.463608
v -162.614990 -250.026901 135.695496
v -162.400803 -258.858551 131.805618
v -161.673553 -253.192047 138.652618
v -154.214249 -247.297852 130.592453
v -156.720993 -249.628036 129.500000
v -159.322281 -237.739792 137.338211
v -155.981110 -241.863708 138.256119
v -155.303009 -246.511261 143.183487
v -158.685059 -251.080139 139.670959
v -159.646057 -257.080353 139.540756
v -161.556091 -263.894531 134.691452
v -161.674057 -263.070709 130.218674
v -160.550079 -258.275085 129.534119
v -159.717667 -262.530609 139.546967
v -161.367554 -259.295624 136.362045
v -156.156860 -260.314575 129.583450
v -153.460327 -251.803818 130.660721
v -156.139435 -255.108078 129.500336
v -154.881760 -244.456879 134.597046
v -152.524582 -248.504440 143.217438
v -153.615662 -245.977127 139.155228
v -157.197739 -248.374222 142.448212
v -157.932053 -253.522186 142.827194
v -158.475174 -264.605133 129.529694
v -161.085999 -268.826630 135.681229
v -160.324570 -267.417999 131.154434
v -158.136002 -268.303284 130.910614
v -159.998871 -267.452637 139.301208
v -158.068237 -265.580597 143.160110
v -158.180634 -259.009094 142.866669
v -151.684464 -257.959229 134.442688
v -153.505844 -256.758179 131.185303
v -152.544983 -248.491852 134.929474
v -151.155075 -250.904724 138.941467
v -151.755249 -252.957779 134.578552
v -149.583466 -256.037109 136.628754
v -155.294907 -250.616470 144.486969
v -155.281906 -256.292389 144.498764
v -151.387375 -252.849304 144.086044
v -156.673065 -261.968689 144.441391
v -156.692398 -265.142365 132.299362
v -158.587250 -269.535217 134.199432
v -159.994568 -272.673889 139.449554
v -160.953751 -273.460327 134.719589
v -161.966339 -274.162689 137.301285
v -154.835114 -260.942383 132.300583
v -156.448135 -270.334534 144.480057
v -153.343719 -266.356964 144.500000
v -150.022903 -260.983154 136.103073
v -149.998901 -255.125336 141.292557
v -150.133621 -257.826111 144.149429
v -152.217239 -261.311707 144.499664
v -159.948959 -277.610809 134.514801
v -160.480255 -277.837433 139.422806
v -158.209137 -275.818268 142.538437
v -158.247955 -270.748291 142.321228
v -154.606567 -267.726898 134.516174
v -153.162338 -262.945312 134.509125
v -155.212982 -275.466522 144.677414
v -151.672180 -272.114929 144.492874
v -149.108002 -268.514069 144.165939
v -149.202362 -264.393982 140.061844
v -149.346664 -259.871826 140.611099
v -148.961548 -263.703125 143.632492
v -155.696686 -273.589691 134.504608
v -162.238220 -279.336731 136.346375
v -162.697769 -285.066284 136.354828
v -160.866852 -282.972809 139.409637
v -150.604309 -268.368530 139.438721
v -151.614975 -265.605927 136.607956
v -152.996933 -270.109375 136.752487
v -148.651505 -269.627441 141.457153
v -154.440842 -277.968109 147.408081
v -151.861465 -276.286163 145.442230
v -153.286148 -278.940643 136.620056
v -154.063217 -283.254791 136.235291
v -155.467514 -279.461792 134.505844
v -151.003387 -272.879150 139.612930
v -153.307648 -274.642487 136.536896
v -161.529907 -287.882080 134.547348
v -160.602051 -282.546173 134.555450
v -161.715988 -287.491913 139.344101
v -158.712997 -281.026642 141.809448
v -156.592957 -280.198212 144.578415
v -155.702469 -283.265503 147.639221
v -153.097900 -275.953064 148.458038
v -150.459976 -279.279358 143.628860
v -149.336060 -274.514252 142.927704
v -151.146011 -279.446045 148.307190
v -156.587601 -285.180634 134.507080
v -154.423584 -288.569550 135.765076
v -152.956329 -286.390900 139.826050
v -150.975296 -277.257263 139.800034
v -151.955048 -281.873566 139.806824
v -161.381836 -292.465149 139.706207
v -162.842865 -293.232605 134.617783
v -163.331879 -290.257538 136.759583
v -158.027496 -284.893127 144.241745
v -157.098175 -288.469971 146.835297
v -159.237732 -288.457428 141.892441
v -158.892960 -292.639191 144.648163
v -153.605606 -280.953094 149.480667
v -152.285309 -284.686646 148.600952
v -155.148163 -286.914551 149.458466
v -158.948761 -296.136230 134.500000
v -157.574387 -290.901093 134.500000
v -155.002197 -293.500153 135.663788
v -153.553757 -291.093567 140.192657
v -151.678040 -284.085114 144.076035
v -164.699677 -295.066956 137.292664
v -160.662704 -296.573547 142.679962
v -166.373520 -299.839111 138.268173
v -153.308899 -290.488037 148.930695
v -156.038391 -298.508392 135.565475
v -155.134842 -296.309784 140.025620
v -153.864212 -294.096558 144.927185
v -152.485474 -289.024353 144.969116
v -167.084869 -302.363586 135.367981
v -164.578598 -298.326752 134.677872
v -163.097748 -297.253540 139.521912
v -161.847870 -301.109833 140.808640
v -164.874146 -303.146667 139.492294
v -159.517502 -297.015594 147.722092
v -157.171173 -292.531006 149.195465
v -160.284866 -302.667725 149.208481
v -164.469284 -304.276764 134.500000
v -159.850204 -301.276337 134.500412
v -157.268784 -303.408539 135.683838
v -154.317703 -295.631378 148.849319
v -168.549164 -307.366089 135.019623
v -164.784729 -310.010284 134.500397
v -163.019165 -306.025269 141.505447
v -161.153549 -301.755737 145.417084
v -168.224945 -305.509308 138.373611
v -157.725235 -298.153351 149.498779
v -160.100204 -306.700378 134.745270
v -156.623886 -301.781830 140.208160
v -158.852295 -307.012634 139.223587
v -155.343719 -299.137054 144.698273
v -155.887207 -300.785583 148.585938
v -170.302414 -310.689667 138.391663
v -167.252914 -314.667542 134.500443
v -166.182419 -308.539642 139.545959
v -164.731781 -310.543335 143.176178
v -162.360489 -306.906097 146.905975
v -157.474060 -305.050385 149.086777
v -158.664459 -309.288055 148.197861
v -161.183762 -308.459473 149.474228
v -161.510300 -312.988800 148.926941
v -161.307068 -310.581543 135.785660
v -163.976746 -314.928253 135.759369
v -157.073853 -304.740814 144.836395
v -159.393845 -309.461823 143.926315
v -171.757019 -316.802216 134.543259
v -170.406891 -311.834747 134.891495
v -172.841766 -315.412476 137.076538
v -161.707062 -312.673615 139.912201
v -164.669861 -317.301941 140.663483
v -168.002991 -313.000854 139.839493
v -164.027603 -312.183990 148.218765
v -166.829422 -314.743439 144.130402
v -170.756638 -316.646576 139.703033
v -169.228394 -318.712799 144.052597
v -174.425842 -319.882416 139.204407
v -161.752258 -313.970154 144.693558
v -163.836960 -317.603363 147.141953
v -172.366089 -321.634003 134.502228
v -167.709030 -318.956879 135.479736
v -164.291809 -315.898224 149.481949
v -166.811218 -317.298126 148.303177
v -172.278519 -321.665924 140.984482
v -175.400742 -319.773987 135.490646
v -168.953857 -321.805359 148.154953
v -171.196747 -322.987671 144.684280
v -174.622742 -325.728516 143.367050
v -178.877777 -323.394135 136.849518
v -177.051651 -324.325806 134.507477
v -173.774780 -326.615448 135.228561
v -170.327194 -323.208130 136.068619
v -167.835861 -321.240845 139.842377
v -166.370895 -321.002350 144.830841
v -169.332855 -325.232483 144.286606
v -166.522797 -320.473175 149.286545
v -170.042526 -325.079620 149.484512
v -176.440292 -324.188477 139.574814
v -179.804932 -327.299835 139.797104
v -181.329910 -327.132324 134.609299
v -171.465988 -326.050446 139.926468
v -167.884460 -324.339325 148.228546
v -170.873734 -328.506989 148.363022
v -173.748703 -329.373474 149.495255
v -177.219940 -328.509705 144.300690
v -172.925964 -326.510132 147.809937
v -183.083344 -327.129486 137.177017
v -183.755966 -330.007080 139.758835
v -180.975311 -330.798309 144.036804
v -177.215958 -330.315369 148.134552
v -177.776062 -329.550018 135.060791
v -183.292175 -331.410065 134.501572
v -180.999298 -332.942383 136.141953
v -175.326767 -329.496399 139.306992
v -172.593445 -329.416992 144.384048
v -173.996185 -332.654602 148.376282
v -186.558640 -330.017700 135.504929
v -187.867538 -334.268860 134.500351
v -187.250443 -332.400543 139.550201
v -178.393509 -332.767395 140.008743
v -175.664627 -333.072693 144.498001
v -178.768539 -336.448730 144.194611
v -181.323212 -333.124023 148.389236
v -177.446350 -333.572113 149.499969
v -184.485184 -333.705444 144.213470
v -187.801651 -336.833527 143.970749
v -184.953033 -336.740265 148.306976
v -190.737381 -332.756042 135.911575
v -188.737915 -338.634735 136.069489
v -192.332474 -336.887939 134.507416
v -184.946259 -335.605652 136.334595
v -185.874222 -338.956726 139.429642
v -181.715561 -335.938568 139.730362
v -183.093887 -339.591980 141.999985
v -176.814972 -336.834503 148.039261
v -181.194962 -337.005096 149.500000
v -179.774857 -340.391815 148.766373
v -188.565842 -340.003479 148.285843
v -194.218155 -336.217682 136.633362
v -192.810379 -338.176575 140.003296
v -190.539230 -334.893555 139.496063
v -192.763489 -340.640808 135.788467
v -180.609360 -340.576324 145.011429
v -182.810837 -343.615570 148.358749
v -189.559204 -343.907104 149.500000
v -184.783325 -341.098694 149.499924
v -186.916214 -345.771820 148.530319
v -192.841492 -342.678558 148.162460
v -191.119888 -339.799194 144.376556
v -195.009277 -342.110718 143.990723
v -196.114197 -340.066681 135.081421
v -194.316406 -344.949005 139.501160
v -195.461700 -341.394867 138.170242
v -190.489838 -341.634521 139.362091
v -196.034943 -340.351715 139.074829
v -196.728271 -343.855408 140.541336
v -187.226349 -343.296204 140.989578
v -184.434753 -343.424316 144.818466
v -189.030884 -346.038727 144.810150
v -198.161545 -345.469025 144.870697
v -191.510284 -345.861786 141.066818
v -191.374298 -348.125366 148.644958
v -194.537582 -346.335480 149.500000
v -198.069550 -347.271759 148.416656
v -197.555634 -344.310913 148.209015
v -197.054184 -348.525848 140.735245
v -193.620514 -349.115967 145.063187
v -196.871246 -350.193695 145.041550
v -195.772293 -350.476562 148.731033
v -195.388809 -348.894714 140.923660
f 1 3 2
f 2 6 1
f 1 9 3
f 11 8 1
f 1 8 9
f 1 12 11
f 6 12 1
f 2 13 6
f 3 4 2
f 2 4 13
f 3 7 4
f 9 7 3
f 6 18 12
f 6 5 18
f 13 5 6
f 9 16 7
f 8 16 9
f 11 10 8
f 11 22 10
f 12 22 11
f 8 23 16
f 10 23 8
f 12 21 22
f 18 21 12
f 13 19 5
f 4 14 13
f 7 14 4
f 13 15 19
f 14 15 13
f 7 17 14
f 23 17 16
f 16 17 7
f 18 32 21
f 18 27 32
f 5 27 18
f 19 27 5
f 10 24 23
f 10 20 24
f 22 20 10
f 21 20 22
f 23 28 17
f 24 28 23
f 21 25 20
f 32 25 21
f 19 26 27
f 27 26 32
f 19 30 26
f 15 30 19
f 14 29 15
f 28 29 17
f 17 29 14
f 15 31 30
f 29 31 15
f 28 31 29
f 32 33 25
f 32 34 33
f 26 34 32
f 24 36 28
f 28 36 31
f 24 41 36
f 24 37 41
f 20 37 24
f 33 37 25
f 25 37 20
f 26 35 34
f 30 35 26
f 30 43 35
f 30 45 43
f 36 45 31
f 31 45 30
f 33 38 37
f 37 38 41
f 33 39 38
f 34 39 33
f 34 47 39
f 35 47 34
f 36 48 45
f 41 48 36
f 41 40 48
f 38 40 41
f 35 52 47
f 35 42 52
f 43 42 35
f 43 44 42
f 43 55 44
f 48 55 45
f 45 55 43
f 38 46 40
f 39 46 38
f 39 58 46
f 39 59 58
f 52 59 47
f 47 59 39
f 48 49 55
f 40 49 48
f 40 50 49
f 46 50 40
f 52 51 59
f 52 61 51
f 42 61 52
f 42 53 61
f 44 53 42
f 44 54 53
f 44 57 54
f 55 57 44
f 55 56 57
f 49 56 55
f 46 65 50
f 58 65 46
f 58 66 65
f 58 68 66
f 59 68 58
f 59 70 68
f 51 70 59
f 49 64 56
f 50 64 49
f 50 72 64
f 65 72 50
f 51 60 70
f 51 62 60
f 53 62 61
f 61 62 51
f 53 75 62
f 54 75 53
f 54 63 75
f 57 63 54
f 57 76 63
f 56 79 57
f 57 79 76
f 64 79 56
f 65 67 72
f 66 67 65
f 66 81 67
f 66 69 81
f 70 69 68
f 68 69 66
f 60 69 70
f 64 71 79
f 72 71 64
f 67 73 72
f 81 73 67
f 72 73 71
f 60 82 69
f 60 83 82
f 62 83 60
f 62 74 83
f 75 74 62
f 75 85 74
f 63 85 75
f 63 77 85
f 76 77 63
f 76 78 77
f 79 78 76
f 79 87 78
f 73 87 71
f 71 87 79
f 81 88 73
f 73 88 87
f 81 80 88
f 81 89 80
f 69 89 81
f 82 89 69
f 82 90 89
f 82 91 90
f 83 91 82
f 83 84 91
f 74 84 83
f 74 93 84
f 85 93 74
f 85 94 93
f 77 86 85
f 85 86 94
f 77 98 86
f 78 98 77
f 78 97 98
f 88 97 87
f 87 97 78
f 88 99 97
f 80 99 88
f 80 101 99
f 89 101 80
f 90 101 89
f 90 102 101
f 91 102 90
f 84 103 91
f 91 103 102
f 93 104 84
f 84 104 103
f 93 92 104
f 94 92 93
f 94 106 92
f 86 95 94
f 94 95 106
f 86 96 95
f 98 96 86
f 98 109 96
f 99 109 97
f 97 109 98
f 99 100 109
f 101 100 99
f 101 110 100
f 102 110 101
f 103 112 102
f 112 111 102
f 102 111 110
f 103 115 112
f 104 115 103
f 104 116 115
f 92 116 104
f 106 105 92
f 92 105 116
f 106 120 105
f 106 107 120
f 106 122 107
f 95 122 106
f 95 127 122
f 96 127 95
f 96 108 127
f 109 108 96
f 100 108 109
f 100 124 108
f 110 124 100
f 110 123 124
f 111 123 110
f 112 113 111
f 115 113 112
f 111 114 123
f 113 114 111
f 115 117 113
f 116 117 115
f 105 117 116
f 105 130 117
f 105 119 130
f 120 119 105
f 120 118 119
f 120 132 118
f 107 132 120
f 107 121 132
f 107 133 121
f 122 133 107
f 122 126 133
f 123 126 124
f 122 125 126
f 124 125 108
f 108 125 127
f 127 125 122
f 126 125 124
f 126 128 133
f 123 128 126
f 123 136 128
f 114 136 123
f 113 138 114
f 117 129 113
f 113 129 138
f 130 129 117
f 114 139 136
f 138 139 114
f 130 141 129
f 119 141 130
f 119 142 141
f 119 131 142
f 118 131 119
f 118 145 131
f 118 148 145
f 132 148 118
f 132 135 148
f 121 135 132
f 121 134 135
f 128 134 133
f 133 134 121
f 128 137 134
f 134 137 135
f 136 137 128
f 136 149 137
f 139 149 136
f 138 140 139
f 141 140 129
f 129 140 138
f 139 140 149
f 141 153 140
f 142 153 141
f 142 154 153
f 142 143 154
f 131 143 142
f 145 144 131
f 144 156 131
f 131 156 143
f 145 146 144
f 145 147 146
f 148 147 145
f 148 162 147
f 135 162 148
f 135 163 162
f 137 163 135
f 137 164 163
f 149 164 137
f 149 150 164
f 149 151 150
f 153 151 140
f 140 151 149
f 153 152 151
f 151 152 150
f 154 152 153
f 154 155 152
f 143 167 154
f 154 167 155
f 156 167 143
f 144 168 156
f 144 157 168
f 146 157 144
f 156 158 167
f 156 159 158
f 168 159 156
f 146 169 157
f 146 160 169
f 147 160 146
f 147 161 160
f 162 161 147
f 163 172 162
f 164 172 163
f 162 172 161
f 164 165 172
f 150 165 164
f 152 165 150
f 155 165 152
f 155 173 165
f 167 166 155
f 155 166 173
f 158 166 167
f 168 175 159
f 168 177 175
f 157 177 168
f 157 178 177
f 169 178 157
f 158 180 166
f 158 179 180
f 159 179 158
f 159 181 179
f 175 181 159
f 169 170 178
f 160 170 169
f 160 171 170
f 161 171 160
f 161 174 171
f 173 174 165
f 165 174 172
f 172 174 161
f 173 185 174
f 174 185 171
f 173 183 185
f 180 183 166
f 166 183 173
f 175 190 181
f 177 176 175
f 175 189 190
f 176 189 175
f 177 194 176
f 178 194 177
f 178 195 194
f 178 182 195
f 170 182 178
f 180 186 183
f 179 186 180
f 179 200 186
f 181 200 179
f 181 198 200
f 190 198 181
f 170 197 182
f 185 197 171
f 171 197 170
f 185 184 197
f 183 184 185
f 183 187 184
f 200 187 186
f 186 187 183
f 190 188 198
f 189 192 190
f 190 192 188
f 176 191 189
f 189 191 192
f 176 193 191
f 194 193 176
f 194 196 193
f 195 196 194
f 195 206 196
f 195 207 206
f 182 207 195
f 182 209 207
f 184 209 197
f 197 209 182
f 198 199 200
f 200 208 187
f 184 208 209
f 199 208 200
f 187 208 184
f 198 210 199
f 188 201 198
f 198 201 210
f 188 212 201
f 188 202 212
f 192 202 188
f 192 216 202
f 191 216 192
f 191 203 216
f 191 218 203
f 193 218 191
f 206 218 196
f 196 218 193
f 206 204 218
f 206 205 204
f 207 205 206
f 207 219 205
f 209 219 207
f 208 219 209
f 199 211 208
f 208 211 219
f 210 211 199
f 212 221 201
f 201 221 210
f 221 213 210
f 210 213 211
f 211 213 219
f 212 214 221
f 202 224 212
f 224 225 212
f 212 225 214
f 202 215 224
f 216 215 202
f 216 229 215
f 203 229 216
f 203 217 229
f 218 217 203
f 218 230 217
f 204 230 218
f 204 234 230
f 205 234 204
f 205 236 234
f 213 236 219
f 219 236 205
f 213 220 236
f 221 220 213
f 221 222 220
f 214 222 221
f 214 223 222
f 225 223 214
f 224 241 225
f 215 241 224
f 225 226 223
f 241 226 225
f 229 227 215
f 215 228 241
f 227 228 215
f 229 232 227
f 217 231 229
f 230 231 217
f 229 231 232
f 230 233 231
f 231 233 232
f 234 233 230
f 234 235 233
f 234 237 235
f 236 237 234
f 236 246 237
f 220 246 236
f 220 238 246
f 222 238 220
f 223 238 222
f 223 240 238
f 238 240 246
f 223 239 240
f 226 239 223
f 241 243 226
f 228 243 241
f 226 249 239
f 243 249 226
f 227 242 228
f 232 253 227
f 227 253 242
f 242 255 228
f 228 250 243
f 255 250 228
f 243 250 249
f 232 258 253
f 232 245 258
f 233 245 232
f 235 244 233
f 233 244 245
f 235 259 244
f 237 259 235
f 246 247 237
f 237 247 259
f 239 247 240
f 240 247 246
f 239 261 247
f 247 261 259
f 239 248 261
f 239 262 248
f 249 262 239
f 249 263 262
f 250 263 249
f 242 251 255
f 242 252 251
f 253 252 242
f 253 264 252
f 253 256 264
f 258 256 253
f 255 254 250
f 251 254 255
f 250 270 263
f 254 270 250
f 258 272 256
f 244 257 245
f 245 257 258
f 258 257 272
f 244 273 257
f 261 273 259
f 259 273 244
f 261 274 273
f 261 260 274
f 248 260 261
f 262 277 248
f 263 277 262
f 248 277 260
f 263 278 277
f 270 278 263
f 264 266 252
f 252 266 251
f 266 265 251
f 251 268 254
f 265 268 251
f 264 267 266
f 264 281 267
f 256 281 264
f 256 286 281
f 272 286 256
f 268 269 254
f 254 269 270
f 270 280 278
f 269 280 270
f 272 271 286
f 272 275 271
f 274 275 273
f 257 275 272
f 273 275 257
f 274 276 275
f 275 276 271
f 274 290 276
f 260 279 274
f 277 279 260
f 278 279 277
f 274 279 290
f 278 291 279
f 279 291 290
f 280 292 278
f 278 292 291
f 267 282 266
f 281 282 267
f 266 282 265
f 282 284 265
f 265 283 268
f 265 285 283
f 284 285 265
f 268 296 269
f 283 296 268
f 281 297 282
f 281 298 297
f 271 298 286
f 286 298 281
f 296 287 269
f 287 288 269
f 269 288 280
f 280 288 292
f 271 289 298
f 276 289 271
f 276 303 289
f 290 303 276
f 291 303 290
f 291 304 303
f 292 304 291
f 288 304 292
f 282 305 284
f 297 305 282
f 305 293 284
f 293 306 284
f 284 306 285
f 285 294 283
f 306 294 285
f 283 295 296
f 294 295 283
f 296 295 287
f 297 311 305
f 297 310 311
f 298 310 297
f 289 310 298
f 295 299 287
f 287 300 288
f 299 300 287
f 288 301 304
f 300 301 288
f 289 302 310
f 304 302 303
f 303 302 289
f 304 312 302
f 301 312 304
f 305 317 293
f 305 319 317
f 311 319 305
f 293 321 306
f 317 321 293
f 321 307 306
f 307 308 306
f 306 308 294
f 294 323 295
f 308 323 294
f 295 324 299
f 323 324 295
f 311 318 319
f 311 309 318
f 318 309 312
f 310 309 311
f 302 309 310
f 312 309 302
f 324 313 299
f 313 326 299
f 299 314 300
f 326 314 299
f 300 328 301
f 301 328 312
f 312 328 318
f 314 328 300
f 317 330 321
f 317 316 330
f 317 315 316
f 319 315 317
f 319 333 315
f 318 333 319
f 328 333 318
f 321 320 307
f 330 320 321
f 307 322 308
f 307 337 322
f 320 337 307
f 308 338 323
f 323 338 324
f 308 340 338
f 322 340 308
f 324 325 313
f 338 325 324
f 313 342 326
f 325 342 313
f 326 329 314
f 342 329 326
f 314 327 328
f 328 327 333
f 329 327 314
f 330 346 320
f 330 331 346
f 316 331 330
f 316 332 331
f 316 334 332
f 327 334 333
f 315 334 316
f 333 334 315
f 320 336 337
f 346 336 320
f 337 335 322
f 322 335 340
f 336 350 337
f 337 350 335
f 338 339 325
f 340 339 338
f 340 341 339
f 335 341 340
f 325 344 342
f 339 344 325
f 342 343 329
f 344 343 342
f 329 349 327
f 343 349 329
f 334 349 332
f 327 349 334
f 346 345 336
f 346 347 345
f 331 347 346
f 331 348 347
f 332 348 331
f 332 357 348
f 349 357 332
f 343 357 349
f 336 359 350
f 345 359 336
f 350 360 335
f 335 351 341
f 360 351 335
f 350 352 360
f 359 352 350
f 339 364 344
f 341 364 339
f 351 363 341
f 341 363 364
f 344 353 343
f 364 353 344
f 343 353 357
f 345 367 359
f 345 354 367
f 347 354 345
f 347 355 354
f 348 355 347
f 348 356 355
f 353 356 357
f 357 356 348
f 359 358 352
f 359 366 358
f 367 366 359
f 360 361 351
f 360 362 361
f 352 362 360
f 351 373 363
f 361 373 351
f 352 374 362
f 358 374 352
f 363 375 364
f 375 369 364
f 364 369 353
f 353 369 356
f 363 365 375
f 373 365 363
f 367 376 366
f 367 368 376
f 354 368 367
f 354 377 368
f 355 377 354
f 355 379 377
f 369 379 356
f 356 379 355
f 358 370 374
f 366 370 358
f 366 371 370
f 376 371 366
f 361 372 373
f 362 372 361
f 374 383 362
f 362 383 372
f 372 385 373
f 373 385 365
f 374 381 383
f 370 381 374
f 365 380 375
f 375 380 369
f 369 380 379
f 365 386 380
f 365 388 386
f 385 388 365
f 376 390 371
f 376 378 390
f 377 378 368
f 368 378 376
f 377 392 378
f 386 392 380
f 379 392 377
f 380 392 379
f 370 395 381
f 371 395 370
f 371 382 395
f 371 391 382
f 390 391 371
f 372 384 385
f 383 384 372
f 381 399 383
f 383 399 384
f 385 400 388
f 384 400 385
f 381 402 399
f 381 396 402
f 395 396 381
f 386 387 392
f 388 387 386
f 388 389 387
f 400 389 388
f 390 397 391
f 378 397 390
f 378 393 397
f 387 393 392
f 392 393 378
f 382 394 395
f 395 394 396
f 382 408 394
f 391 408 382
f 391 398 408
f 397 398 391
f 402 401 399
f 399 401 384
f 384 401 400
f 400 409 389
f 400 410 409
f 401 410 400
f 396 404 402
f 402 403 401
f 401 403 410
f 402 411 403
f 404 411 402
f 394 412 396
f 396 412 404
f 387 405 393
f 389 405 387
f 397 405 398
f 393 405 397
f 389 406 405
f 405 406 398
f 409 406 389
f 394 407 412
f 408 407 394
f 408 419 407
f 408 420 419
f 398 420 408
f 398 421 420
f 406 421 398
f 409 423 406
f 410 423 409
f 406 423 421
f 410 413 423
f 403 413 410
f 404 425 411
f 404 416 425
f 412 416 404
f 403 414 413
f 411 414 403
f 425 415 411
f 411 415 414
f 412 417 416
f 407 417 412
f 407 418 417
f 419 418 407
f 419 428 418
f 420 428 419
f 420 422 428
f 421 422 420
f 421 429 422
f 423 429 421
f 423 424 429
f 413 424 423
f 413 433 424
f 415 433 414
f 414 433 413
f 416 426 425
f 425 426 415
f 416 434 426
f 416 427 434
f 417 427 416
f 415 432 433
f 426 432 415
f 417 438 427
f 418 438 417
f 418 441 438
f 428 441 418
f 428 442 441
f 422 442 428
f 422 430 442
f 424 430 429
f 429 430 422
f 424 431 430
f 433 431 424
f 433 437 431
f 432 437 433
f 434 435 426
f 426 436 432
f 435 436 426
f 432 436 437
f 434 444 435
f 427 444 434
f 438 439 427
f 427 439 444
f 438 440 439
f 438 447 440
f 441 447 438
f 441 448 447
f 442 448 441
f 442 443 448
f 431 443 430
f 430 443 442
f 437 451 431
f 431 451 443
f 437 450 451
f 436 450 437
f 444 446 435
f 446 452 435
f 435 452 436
f 436 452 450
f 439 445 444
f 444 455 446
f 445 455 444
f 439 458 445
f 440 458 439
f 440 460 458
f 447 460 440
f 447 449 460
f 448 449 447
f 448 462 449
f 443 462 448
f 451 462 443
f 450 463 451
f 451 463 462
f 450 454 463
f 452 454 450
f 455 468 446
f 446 453 452
f 468 453 446
f 452 453 454
f 445 457 455
f 445 456 457
f 458 456 445
f 455 466 468
f 457 466 455
f 458 459 456
f 460 459 458
f 460 461 459
f 449 461 460
f 449 470 461
f 462 470 449
f 462 464 470
f 463 464 462
f 454 473 463
f 463 473 464
f 454 465 473
f 453 465 454
f 466 467 468
f 468 467 453
f 453 476 465
f 467 476 453
f 457 478 466
f 457 469 478
f 456 469 457
f 456 481 469
f 459 481 456
f 466 482 467
f 478 482 466
f 459 484 481
f 461 484 459
f 461 485 484
f 470 485 461
f 470 471 485
f 473 471 464
f 464 471 470
f 465 472 473
f 473 474 471
f 472 474 473
f 471 474 485
f 465 475 472
f 476 475 465
f 482 477 467
f 467 477 476
f 476 477 475
f 478 480 482
f 481 480 469
f 469 480 478
f 481 479 480
f 481 488 479
f 484 488 481
f 482 483 477
f 479 483 480
f 480 483 482
f 484 486 488
f 474 486 485
f 485 486 484
f 472 489 474
f 474 489 486
f 472 490 489
f 475 490 472
f 475 492 490
f 477 492 475
f 483 487 477
f 477 487 492
f 479 493 483
f 483 493 487
f 479 497 493
f 488 497 479
f 488 494 497
f 486 494 488
f 489 494 486
f 490 496 489
f 489 496 494
f 490 491 496
f 487 491 492
f 492 491 490
f 487 495 491
f 493 495 487
f 494 495 497
f 496 495 494
f 491 495 496
f 497 495 493
