# 2988
# 996
v -392.817841 -295.268036 287.141571
v -391.680176 -300.956879 284.019592
v -392.138519 -289.856842 289.321716
v -392.013245 -293.419128 292.483002
v -392.130066 -294.251282 279.829193
v -392.400269 -287.549194 277.471649
v -390.432129 -291.143402 274.686523
v -392.524231 -281.303833 280.272614
v -393.220459 -288.471619 284.455841
v -389.151398 -285.273102 289.474792
v -392.130219 -299.459442 292.793427
v -389.791565 -300.756012 297.211761
v -392.010406 -305.031952 289.859802
v -390.216125 -307.083252 283.124847
v -389.435791 -301.234406 279.594696
v -389.557159 -292.415649 292.101715
v -389.424866 -297.057129 294.505615
v -386.156403 -295.680389 292.190704
v -384.499725 -301.654877 294.323181
v -386.429596 -294.951202 274.476440
v -389.005432 -297.246948 276.814240
v -386.063660 -291.528656 271.273102
v -391.533905 -273.506439 281.098175
v -392.041565 -283.503082 287.395172
v -388.106873 -282.626495 287.132568
v -385.036774 -287.295929 285.622009
v -382.917847 -294.014893 286.097687
v -385.655396 -291.970215 289.402008
v -390.969177 -304.856842 296.313965
v -390.787262 -310.831635 290.632843
v -383.618378 -312.958435 281.591858
v -386.795288 -309.819458 281.693665
v -387.685272 -312.168121 284.597992
v -380.444977 -312.586121 279.515045
v -385.899902 -306.997345 279.516541
v -380.520599 -306.054596 279.850342
v -384.380432 -303.123260 277.013458
v -381.602783 -303.256836 276.446442
v -380.472321 -306.115112 291.753387
v -387.930939 -301.435852 297.263611
v -384.178223 -300.602203 274.527283
v -383.170685 -293.015778 271.769684
v -388.304077 -284.538635 269.510620
v -382.951324 -288.187439 269.560730
v -391.433350 -282.091370 272.478821
v -389.372894 -287.673523 272.064545
v -389.496094 -277.788666 267.306091
v -391.680298 -274.670258 274.279785
v -390.240509 -267.478394 275.318085
v -388.826721 -269.644714 281.687592
v -391.460327 -278.113770 284.228333
v -386.909943 -279.697632 284.406189
v -388.343445 -273.078278 284.493256
v -390.286499 -280.551788 287.246277
v -382.631775 -287.698395 279.470673
v -382.045807 -293.035065 279.116516
v -381.666229 -296.031464 275.154480
v -389.132904 -305.394470 299.476349
v -386.899017 -311.496399 299.527344
v -386.224640 -306.439484 297.055634
v -390.673645 -311.182648 297.713593
v -388.573944 -315.813019 287.916718
v -388.943604 -318.141876 294.726898
v -385.299652 -318.319183 287.086823
v -380.615875 -322.161041 286.698608
v -385.829803 -320.566071 289.685791
v -380.529755 -316.800476 281.508026
v -378.516296 -320.133850 284.514099
v -384.331390 -317.119446 284.630890
v -378.451080 -316.381165 281.964813
v -382.258789 -299.871918 289.476440
v -381.070251 -299.870209 281.123108
v -380.047760 -305.518341 285.165161
v -378.232025 -313.123657 288.002594
v -378.644073 -311.083679 281.798981
v -382.495422 -308.049072 294.473267
v -379.407074 -313.112061 294.131989
v -382.906769 -311.712708 297.336945
v -381.454010 -290.640259 272.571320
v -384.125366 -282.053833 280.292908
v -382.000610 -281.972473 267.956146
v -386.004578 -282.498932 266.643921
v -383.356567 -284.102570 266.722229
v -386.841125 -273.322906 264.496338
v -390.140533 -271.098938 267.480560
v -390.068298 -265.244293 269.467255
v -388.216919 -263.036102 279.219849
v -385.454742 -267.736603 279.501892
v -381.650421 -284.470093 274.054382
v -387.640839 -313.838593 302.623901
v -388.646362 -316.296661 301.074585
v -385.963165 -320.092712 304.453430
v -383.006714 -325.397980 289.597076
v -384.820709 -329.449188 299.458923
v -387.405396 -322.637878 300.929108
v -385.689209 -325.490540 293.708008
v -377.702393 -327.555420 289.517853
v -376.772247 -320.128510 287.263123
v -381.734558 -275.332855 266.213898
v -384.291351 -279.550720 264.524261
v -384.567444 -270.885223 261.866119
v -383.526031 -268.081177 259.509064
v -387.695526 -267.393097 262.531952
v -388.170532 -260.424774 262.952728
v -388.814606 -260.322571 275.133667
v -388.598083 -257.641785 269.187408
v -386.098419 -255.573166 278.037415
v -384.511292 -259.864288 279.393311
v -382.659424 -271.853333 275.929413
v -384.249420 -275.946106 280.464935
v -386.256989 -270.804779 282.330353
v -382.647583 -265.576904 275.825043
v -381.622833 -277.447510 273.707275
v -384.732697 -315.218475 302.329102
v -380.176636 -321.185150 304.290680
v -383.155731 -332.478424 305.815948
v -385.135437 -326.278137 306.154724
v -381.226593 -335.200928 298.551727
v -377.609131 -331.745331 291.495514
v -381.394196 -329.180328 291.471100
v -381.113556 -330.898560 293.666626
v -377.169952 -323.223541 287.422546
v -377.582306 -318.707123 293.946533
v -375.509674 -325.502380 291.851410
v -380.292908 -316.821808 299.527954
v -380.848236 -269.545227 269.332886
v -381.193451 -270.229340 262.417206
v -386.299225 -262.632141 259.504669
v -385.555145 -257.389709 257.413269
v -387.118317 -252.994919 263.619812
v -387.153198 -253.675964 273.947479
v -382.239227 -253.992828 274.460571
v -382.045319 -259.525360 275.024445
v -384.047089 -255.266022 277.431976
v -383.373383 -323.700165 307.282288
v -380.489563 -324.670135 307.859467
v -377.423401 -335.110504 294.528625
v -382.423859 -328.919525 309.440033
v -376.975800 -329.857910 309.225739
v -374.477234 -330.618805 292.272034
v -377.012360 -322.844025 299.762421
v -379.755157 -264.669678 263.559265
v -380.330627 -263.591522 259.714386
v -383.575806 -261.008209 256.391571
v -385.155334 -250.052368 256.351349
v -385.851166 -246.078186 263.844788
v -383.913513 -248.883911 274.481995
v -386.864746 -249.166992 269.507935
v -383.634796 -245.870148 272.180176
v -380.422485 -247.794312 273.139191
v -380.517456 -261.287567 269.804260
v -377.015625 -326.904663 304.750061
v -379.531342 -332.620819 312.091949
v -379.580261 -339.190521 305.098999
v -380.849121 -335.280273 311.271301
v -375.257141 -344.789185 305.342590
v -377.196960 -339.315002 297.974670
v -372.890320 -343.676544 298.939789
v -378.243835 -336.336090 314.488800
v -375.786621 -333.925690 311.773560
v -372.813568 -340.287354 294.598083
v -371.912537 -335.002533 295.184814
v -373.558624 -332.134583 306.062683
v -370.572144 -336.135406 301.166931
v -373.917053 -329.459229 298.286652
v -378.805481 -257.307343 263.570740
v -377.346130 -249.944992 263.789337
v -380.056519 -259.262207 256.862305
v -378.152313 -252.415604 256.733521
v -382.101349 -255.528259 254.509598
v -383.398865 -239.531555 263.799957
v -384.257568 -242.565720 269.092621
v -380.977661 -244.520508 272.125732
v -379.564819 -253.465225 269.826813
v -370.286377 -337.846222 309.348694
v -377.930695 -341.536469 312.712006
v -369.886719 -343.754395 296.568756
v -365.798431 -345.777435 299.977509
v -369.646210 -341.251007 297.423737
v -378.383209 -246.600327 269.108612
v -379.381775 -239.364563 269.438721
v -375.903412 -245.161301 257.501556
v -380.416473 -247.617050 254.515533
v -382.111786 -236.460632 256.101654
v -381.791595 -242.515640 251.790207
v -384.309998 -243.285324 256.836761
v -380.171600 -231.694687 263.049988
v -381.298645 -235.208603 268.435547
v -376.120911 -242.322006 264.645538
v -367.085297 -342.329498 303.809418
v -369.934540 -340.720764 315.901917
v -373.307129 -337.602997 315.560852
v -376.761780 -339.061676 317.442200
v -371.008698 -345.877472 319.544739
v -375.959503 -343.611511 318.931824
v -372.347076 -349.287689 321.515320
v -374.595093 -347.222198 315.351074
v -372.507019 -349.380859 309.126312
v -365.036285 -351.672150 301.267181
v -363.421112 -354.086945 304.482483
v -368.926147 -350.586700 302.668396
v -368.462402 -347.985413 299.533234
v -377.421417 -244.198944 251.938995
v -376.943024 -239.522568 249.510864
v -380.961273 -234.847778 250.144318
v -378.819244 -232.721603 267.277191
v -376.838257 -236.141525 265.695465
v -366.475220 -345.909332 318.283356
v -366.005493 -344.413910 310.844208
v -372.463379 -340.265594 319.358795
v -370.224670 -347.858887 322.428894
v -369.056305 -352.020996 324.437805
v -370.572052 -353.047089 315.781403
v -367.819519 -353.967377 307.924927
v -360.086212 -354.586609 306.848846
v -361.876282 -350.162628 311.385681
v -363.458954 -348.966064 304.505707
v -369.907684 -232.550705 256.998413
v -373.504578 -236.913910 260.218079
v -373.309265 -239.664719 252.153030
v -373.168304 -235.083130 247.156433
v -377.480530 -233.960358 246.644196
v -378.051331 -227.574265 247.820831
v -379.205536 -228.769424 254.886841
v -376.962982 -224.695663 261.749268
v -374.240265 -220.510117 261.610962
v -375.934631 -227.771530 264.492981
v -373.019104 -229.531967 262.022949
v -366.574280 -355.196228 326.766266
v -368.743927 -355.782104 321.976898
v -363.462952 -357.468201 307.396271
v -365.775482 -358.238251 314.135559
v -360.692963 -360.702972 310.169281
v -360.138611 -357.936188 306.220367
v -368.712585 -232.341858 250.170486
v -374.987823 -228.787796 244.507111
v -376.084534 -221.487625 253.801147
v -371.508575 -214.547531 257.454865
v -372.468719 -222.205704 262.403442
v -369.213043 -226.394913 259.464417
v -357.759003 -358.234070 309.637115
v -357.461487 -361.048157 312.455597
v -358.902069 -355.422729 321.511292
v -362.293213 -350.678955 318.172913
v -357.603424 -356.182312 313.748444
v -364.731171 -350.235413 323.724091
v -365.966949 -359.709839 327.338806
v -364.078796 -362.058258 320.538757
v -354.506531 -364.450531 314.509338
v -360.228851 -363.062378 315.145203
v -354.254639 -367.396667 316.421173
v -364.280396 -225.712234 248.403870
v -365.886169 -226.154449 255.249359
v -360.843262 -219.126038 250.593918
v -368.959900 -230.447784 244.810715
v -371.364105 -220.118225 241.024506
v -372.579681 -215.850632 250.418610
v -374.447937 -221.331680 245.226791
v -364.751801 -213.177521 257.699463
v -366.166595 -210.595840 257.147614
v -369.355499 -217.374161 259.500305
v -365.146271 -220.122238 256.193970
v -354.152039 -360.352417 314.946228
v -354.082031 -360.514038 319.392578
v -350.439392 -365.040710 317.570892
v -354.310181 -359.850403 324.708344
v -362.441010 -354.404724 326.674286
v -358.068878 -358.105194 329.072662
v -364.031403 -360.389191 332.214966
v -364.149780 -357.154205 329.522980
v -361.852570 -359.328674 332.444672
v -361.722015 -364.704437 331.952179
v -361.063690 -366.096527 325.729279
v -358.304657 -366.751251 319.878845
v -356.162354 -370.917633 324.449249
v -353.068329 -370.494263 319.635681
v -350.815247 -367.752167 316.548279
v -357.955872 -213.045364 249.890076
v -367.017212 -221.442993 239.506699
v -371.321808 -225.301361 241.773270
v -367.140900 -225.591415 242.608414
v -362.180176 -221.722672 242.672638
v -366.829803 -214.269150 239.540680
v -359.954865 -217.463577 239.619904
v -370.227814 -214.669083 243.940384
v -366.389160 -209.008759 242.469345
v -367.245422 -208.790543 251.386658
v -362.502747 -206.118500 254.482819
v -358.082245 -206.077667 252.505417
v -361.712646 -213.608475 254.348907
v -346.426727 -367.262451 323.646606
v -350.098816 -363.201935 324.477692
v -352.865021 -361.249908 329.684357
v -346.681885 -364.673309 329.064301
v -356.207001 -367.279175 334.489014
v -360.771393 -362.527130 334.473602
v -356.341003 -361.369598 333.771210
v -355.931396 -370.737274 337.036224
v -353.494812 -375.443146 330.083282
v -357.687500 -370.310974 332.236938
v -347.346161 -374.260468 319.797852
v -351.166565 -374.400269 323.486603
v -353.248596 -210.397003 245.349030
v -356.844818 -216.708450 244.589539
v -361.173187 -213.702728 236.425262
v -362.168701 -203.385635 246.066071
v -362.843475 -204.053329 237.445877
v -356.761353 -201.185379 252.490234
v -360.720825 -201.965118 252.478485
v -344.559448 -372.580322 321.172913
v -347.731262 -369.437073 319.593658
v -344.645721 -369.192078 325.492889
v -346.784973 -367.557983 334.447815
v -345.116394 -365.643311 333.370880
v -350.453156 -364.625977 334.417847
v -352.400757 -367.557800 337.294098
v -354.692963 -373.652283 336.966736
v -352.777069 -370.761383 339.498016
v -350.752838 -372.997681 338.422150
v -352.231659 -375.965302 334.269257
v -350.252380 -376.452789 329.267639
v -354.765045 -206.105408 249.429672
v -352.628326 -199.083923 249.497742
v -350.133423 -207.731644 238.875793
v -350.435852 -204.881729 245.153656
v -355.416351 -213.654602 238.389908
v -364.255554 -210.597534 236.941879
v -361.108368 -207.112686 234.506165
v -357.987610 -200.701767 234.595078
v -353.606750 -197.343277 232.657455
v -357.360748 -198.785751 239.642395
v -356.422211 -198.541534 247.501678
v -346.832977 -369.737976 326.439850
v -344.362000 -368.462006 331.241852
v -350.268372 -368.924774 332.141418
v -347.033661 -368.831238 332.128448
v -350.760559 -370.997406 334.620392
v -349.533386 -367.301788 337.776978
v -347.299469 -375.213959 323.607574
v -350.769104 -375.443726 333.200348
v -348.399689 -199.356598 246.274261
v -345.992950 -202.584625 241.451859
v -344.358856 -202.878036 234.937851
v -354.631348 -209.438766 234.576248
v -350.629211 -205.020248 232.167526
v -354.767883 -203.600784 231.815918
v -350.957855 -199.963318 229.495468
v -351.555389 -194.441299 239.545013
v -344.410522 -190.025421 241.459702
v -350.571228 -195.002975 246.069183
v -345.279572 -193.166245 244.496506
v -347.820129 -195.852478 247.513535
v -348.458679 -374.214508 326.664398
v -350.570190 -372.758789 329.774933
v -349.779694 -369.923431 326.389954
v -346.423401 -372.375519 324.414307
v -342.153015 -199.620575 239.416016
v -347.594666 -197.955917 226.876587
v -344.650909 -201.235611 228.759933
v -342.048309 -190.554031 224.580399
v -348.350983 -194.324982 227.186279
v -347.610229 -191.978989 234.498535
v -343.008972 -195.596542 242.176697
v -341.463531 -190.408371 242.157227
v -337.565704 -194.208206 239.497803
v -332.982727 -193.905075 237.399124
v -337.579712 -198.887787 237.024887
v -338.461212 -199.251343 229.331253
v -339.722992 -198.809052 224.847382
v -333.143280 -197.419128 223.364426
v -338.139923 -195.543289 221.949997
v -344.840942 -196.085358 224.504791
v -338.809265 -191.166367 221.464355
v -343.085815 -189.204742 228.623428
v -336.009430 -185.043228 229.725464
v -339.711639 -186.835373 235.378098
v -331.434784 -187.350922 239.498688
v -338.572449 -187.142746 239.336075
v -332.620087 -196.956238 232.188293
v -334.132751 -194.131393 219.514328
v -327.223999 -195.652985 219.669846
v -331.351959 -184.032104 223.147827
v -334.976929 -187.405472 219.618362
v -337.509766 -186.284653 224.030914
v -331.985657 -183.981842 237.053207
v -328.284210 -189.024628 237.330307
v -326.731110 -184.446991 237.762390
v -324.076324 -183.622574 232.968842
v -329.253418 -193.263763 234.448914
v -326.555481 -195.395050 229.436691
v -318.951569 -195.091705 226.332108
v -325.404449 -196.635773 223.359528
v -325.698975 -192.469803 216.626450
v -328.435974 -187.645279 219.497116
v -324.130371 -182.333694 225.027756
v -329.889862 -182.958206 229.774445
v -320.488342 -186.839233 232.073517
v -324.442383 -187.928604 234.546860
v -323.600220 -191.321259 232.178635
v -313.931152 -190.922256 227.045700
v -320.605316 -192.646713 229.477173
v -325.444031 -188.081909 216.627487
v -315.344116 -195.437912 214.670395
v -321.314789 -194.894272 218.120728
v -324.399902 -183.493622 218.963745
v -320.360779 -191.724945 214.518997
v -321.719482 -185.377655 214.560242
v -316.890045 -183.475143 223.915527
v -319.397308 -183.611130 229.078857
v -315.972961 -188.044968 229.491592
v -313.471771 -195.028137 224.428085
v -314.741150 -196.646347 221.157150
v -311.115234 -196.239578 208.597733
v -314.335358 -186.378128 214.611908
v -318.310028 -183.311081 217.399155
v -312.538300 -186.750854 226.610382
v -308.668365 -191.402664 224.501099
v -308.151184 -196.833328 222.258179
v -309.016541 -198.120819 215.672867
v -303.029144 -201.466583 216.618210
v -310.778931 -191.976593 209.507919
v -310.604004 -194.788818 206.435532
v -315.894623 -192.104782 211.589691
v -308.546570 -189.094543 213.431030
v -314.820984 -189.470947 211.738922
v -311.307465 -185.779755 218.650299
v -306.508575 -188.557465 223.108307
v -303.729584 -190.091278 217.966919
v -304.811127 -198.015884 219.436951
v -299.952179 -193.753632 219.332489
v -304.724731 -192.927734 221.948318
v -298.768250 -201.786911 219.456741
v -305.269073 -200.069214 209.064407
v -297.605804 -205.098343 216.152985
v -301.837433 -202.284698 202.962082
v -306.072388 -194.297653 206.668152
v -307.080719 -197.799881 204.728180
v -302.903229 -192.036118 210.758438
v -295.707336 -197.997589 217.394852
v -299.514160 -204.366867 209.548706
v -296.000122 -207.618988 203.893906
v -293.251129 -207.055893 214.445587
v -293.458740 -209.848709 211.158157
v -301.784119 -200.078781 201.351990
v -300.705872 -196.977524 204.492676
v -298.127136 -200.510223 201.757889
v -293.469116 -197.897324 204.611755
v -297.429749 -194.279617 207.423141
v -290.656464 -197.012741 210.032623
v -297.054199 -193.835678 214.578400
v -295.367889 -203.842239 216.960388
v -291.647736 -199.269882 214.401230
v -288.364716 -213.464294 214.175232
v -297.035004 -204.501541 199.613113
v -287.957031 -199.737503 205.017395
v -285.480835 -201.141113 213.596436
v -284.792786 -202.966614 209.063934
v -287.460876 -214.071960 196.803009
v -289.905396 -212.989120 204.648209
v -292.546570 -209.092224 198.153412
v -286.487976 -216.653656 210.330933
v -282.637024 -213.308853 214.406555
v -286.351807 -206.464218 214.490067
v -292.327179 -206.546524 196.879486
v -291.256073 -202.578690 201.138275
v -286.377289 -204.575272 201.707062
v -282.919189 -219.382294 195.296875
v -288.663361 -209.736511 194.531189
v -284.745392 -218.621170 201.958481
v -280.999451 -224.841705 200.160690
v -282.715576 -209.635635 205.553253
v -283.522980 -207.825684 212.349243
v -277.228027 -218.873337 214.399567
v -282.747223 -220.435287 214.062378
v -282.130981 -222.493500 208.238434
v -287.351685 -207.350540 196.753891
v -281.886169 -210.623230 197.894943
v -281.956360 -213.164276 194.586182
v -276.855988 -216.817917 196.782501
v -280.011780 -226.703033 195.034119
v -279.836487 -232.570419 198.758728
v -280.178436 -213.035583 211.447937
v -275.132782 -218.320374 210.682693
v -277.718811 -215.072479 204.235092
v -274.150940 -224.020432 211.819153
v -277.010223 -226.757629 214.483047
v -279.250519 -230.039230 206.026657
v -279.257050 -227.633377 212.659805
v -273.903534 -220.202881 203.821594
v -279.171204 -234.183792 194.907593
v -277.095459 -220.884735 194.521133
v -273.470581 -223.305283 196.908554
v -275.437744 -229.046295 194.562515
v -277.411499 -235.378082 197.300034
v -278.201904 -234.810516 203.098236
v -277.412445 -232.316040 210.059067
v -275.557404 -230.001404 211.188171
v -274.085815 -230.555618 197.886856
v -275.332916 -233.498840 204.743393
v -273.601379 -227.166748 204.783890
f 1 5 2
f 1 9 5
f 1 3 9
f 4 3 1
f 1 11 4
f 2 11 1
f 2 15 14
f 5 15 2
f 14 13 2
f 2 13 11
f 4 16 3
f 4 17 16
f 11 17 4
f 5 21 15
f 5 7 21
f 5 6 7
f 9 6 5
f 9 8 6
f 9 24 8
f 3 24 9
f 3 10 24
f 16 28 3
f 3 28 10
f 11 12 17
f 11 29 12
f 13 29 11
f 14 30 13
f 13 30 29
f 14 33 30
f 14 32 33
f 14 35 32
f 15 35 14
f 15 37 35
f 21 37 15
f 16 18 28
f 17 18 16
f 17 19 18
f 17 40 19
f 12 40 17
f 21 41 37
f 21 20 41
f 7 20 21
f 7 22 20
f 7 46 22
f 6 46 7
f 6 45 46
f 8 45 6
f 8 48 45
f 8 23 48
f 8 51 23
f 24 51 8
f 24 54 51
f 10 54 24
f 10 25 54
f 28 26 10
f 10 26 25
f 28 27 26
f 18 27 28
f 12 58 40
f 29 58 12
f 29 61 58
f 30 61 29
f 33 62 30
f 30 63 61
f 62 63 30
f 33 69 62
f 33 31 69
f 35 31 32
f 32 31 33
f 35 34 31
f 35 36 34
f 37 36 35
f 37 38 36
f 41 38 37
f 18 71 27
f 19 71 18
f 19 39 71
f 40 60 19
f 58 60 40
f 60 76 19
f 19 76 39
f 41 57 38
f 20 57 41
f 20 42 57
f 22 42 20
f 22 44 42
f 46 43 22
f 22 43 44
f 45 43 46
f 45 47 43
f 48 47 45
f 48 85 47
f 48 49 85
f 23 49 48
f 23 50 49
f 23 53 50
f 51 53 23
f 51 52 53
f 26 52 25
f 25 52 54
f 54 52 51
f 26 80 52
f 26 55 80
f 27 55 26
f 27 56 55
f 27 72 56
f 56 72 57
f 57 72 38
f 38 72 36
f 71 72 27
f 58 59 60
f 61 59 58
f 61 91 59
f 63 91 61
f 62 66 63
f 62 64 66
f 69 64 62
f 63 95 91
f 63 96 95
f 66 96 63
f 69 65 64
f 64 65 66
f 69 68 65
f 69 67 68
f 31 67 69
f 34 67 31
f 34 70 67
f 67 70 68
f 34 75 70
f 36 75 34
f 36 73 75
f 71 73 72
f 72 73 36
f 39 73 71
f 39 74 73
f 73 74 75
f 75 74 70
f 39 77 74
f 76 77 39
f 60 78 76
f 76 78 77
f 59 78 60
f 42 79 57
f 57 79 56
f 56 79 55
f 44 79 42
f 44 89 79
f 79 89 55
f 55 89 80
f 44 81 89
f 44 83 81
f 43 83 44
f 43 82 83
f 47 82 43
f 47 100 82
f 82 100 83
f 83 100 81
f 47 84 100
f 85 84 47
f 85 103 84
f 85 86 103
f 49 86 85
f 49 105 86
f 49 87 105
f 50 87 49
f 50 88 87
f 50 111 88
f 53 111 50
f 53 110 111
f 80 110 52
f 52 110 53
f 80 113 110
f 81 113 89
f 89 113 80
f 91 90 59
f 59 114 78
f 90 114 59
f 91 92 90
f 90 92 114
f 95 92 91
f 66 93 96
f 65 93 66
f 96 94 95
f 95 117 92
f 94 117 95
f 96 121 94
f 96 120 121
f 93 120 96
f 68 122 65
f 122 97 65
f 65 97 93
f 93 97 120
f 68 98 122
f 74 98 70
f 70 98 68
f 74 123 98
f 77 123 74
f 77 125 123
f 78 125 77
f 114 125 78
f 100 99 81
f 81 99 113
f 84 99 100
f 84 127 99
f 84 101 127
f 103 101 84
f 103 102 101
f 101 102 127
f 103 128 102
f 103 104 128
f 86 104 103
f 86 106 104
f 105 106 86
f 105 131 106
f 105 107 131
f 87 107 105
f 87 108 107
f 88 108 87
f 88 112 108
f 88 109 112
f 113 109 110
f 110 109 111
f 111 109 88
f 113 126 109
f 109 126 112
f 127 126 99
f 99 126 113
f 114 115 125
f 92 115 114
f 92 135 115
f 117 135 92
f 94 116 117
f 121 118 94
f 94 118 116
f 117 138 135
f 116 138 117
f 121 137 118
f 121 119 137
f 97 119 120
f 120 119 121
f 122 124 97
f 123 124 98
f 98 124 122
f 97 140 119
f 119 140 137
f 124 140 97
f 123 141 124
f 125 141 123
f 115 141 125
f 127 142 126
f 127 143 142
f 128 143 102
f 102 143 127
f 128 144 143
f 128 129 144
f 104 129 128
f 104 130 129
f 106 130 104
f 106 148 130
f 131 148 106
f 131 147 148
f 107 132 131
f 131 132 147
f 107 134 132
f 108 134 107
f 108 133 134
f 112 133 108
f 134 133 132
f 126 151 112
f 112 151 133
f 142 151 126
f 115 152 141
f 115 136 152
f 138 136 135
f 135 136 115
f 116 155 138
f 116 154 155
f 118 154 116
f 137 157 118
f 118 157 154
f 138 139 136
f 136 139 152
f 138 153 139
f 155 153 138
f 137 161 157
f 137 162 161
f 140 162 137
f 124 165 140
f 140 165 162
f 141 165 124
f 152 165 141
f 142 166 151
f 143 166 142
f 143 168 166
f 144 168 143
f 144 170 168
f 129 170 144
f 129 145 170
f 130 145 129
f 130 146 145
f 148 146 130
f 148 172 146
f 147 149 148
f 148 149 172
f 147 173 149
f 149 173 172
f 147 150 173
f 132 150 147
f 132 174 150
f 151 174 133
f 133 174 132
f 166 174 151
f 152 163 165
f 139 163 152
f 155 159 153
f 155 176 159
f 154 176 155
f 154 156 176
f 157 156 154
f 157 158 156
f 161 158 157
f 139 160 163
f 159 160 153
f 153 160 139
f 161 177 158
f 161 179 177
f 162 179 161
f 162 164 179
f 163 164 165
f 165 164 162
f 166 167 174
f 170 169 168
f 166 169 167
f 168 169 166
f 170 183 169
f 145 183 170
f 145 186 183
f 146 186 145
f 146 171 186
f 172 171 146
f 172 188 171
f 172 181 188
f 173 181 172
f 173 180 181
f 167 180 174
f 174 180 150
f 150 180 173
f 163 175 164
f 160 175 163
f 159 192 160
f 160 192 175
f 159 193 192
f 176 193 159
f 176 195 193
f 176 197 195
f 176 198 197
f 156 198 176
f 156 201 198
f 158 201 156
f 158 202 201
f 177 202 158
f 177 178 202
f 179 178 177
f 175 190 164
f 164 190 179
f 179 190 178
f 167 189 180
f 180 189 181
f 167 182 189
f 169 182 167
f 183 182 169
f 183 203 182
f 183 185 203
f 186 185 183
f 186 184 185
f 171 184 186
f 171 187 184
f 188 187 171
f 188 206 187
f 181 206 188
f 181 207 206
f 189 207 181
f 175 209 190
f 175 191 209
f 192 191 175
f 192 210 191
f 193 210 192
f 195 210 193
f 195 194 210
f 195 196 194
f 197 196 195
f 197 213 196
f 198 213 197
f 198 214 213
f 201 214 198
f 201 200 214
f 201 199 200
f 202 199 201
f 178 199 202
f 178 217 199
f 199 217 200
f 190 217 178
f 209 217 190
f 189 219 207
f 182 219 189
f 182 220 219
f 203 220 182
f 203 204 220
f 185 204 203
f 185 205 204
f 184 205 185
f 184 224 205
f 187 224 184
f 187 225 224
f 187 227 225
f 207 227 206
f 206 227 187
f 207 228 227
f 219 228 207
f 209 216 217
f 209 208 216
f 194 208 210
f 191 208 209
f 210 208 191
f 196 211 194
f 194 211 208
f 196 212 211
f 213 230 196
f 196 230 212
f 213 232 230
f 214 232 213
f 214 231 232
f 200 231 214
f 200 234 231
f 200 215 234
f 216 215 217
f 217 215 200
f 219 218 228
f 220 218 219
f 220 235 218
f 220 221 235
f 204 221 220
f 204 222 221
f 205 222 204
f 205 223 222
f 224 223 205
f 224 237 223
f 225 237 224
f 225 226 237
f 227 226 225
f 227 239 226
f 228 239 227
f 228 240 239
f 218 240 228
f 216 245 215
f 216 244 245
f 208 244 216
f 208 246 244
f 212 246 211
f 211 246 208
f 230 229 212
f 212 229 246
f 230 247 229
f 230 248 247
f 232 248 230
f 232 250 248
f 232 233 250
f 231 233 232
f 234 233 231
f 234 241 233
f 245 241 215
f 215 241 234
f 218 253 240
f 235 253 218
f 235 252 253
f 235 255 252
f 221 255 235
f 221 236 255
f 223 236 222
f 222 236 221
f 223 258 236
f 237 258 223
f 237 257 258
f 237 238 257
f 226 238 237
f 226 261 238
f 240 261 239
f 239 261 226
f 240 262 261
f 253 262 240
f 245 242 241
f 241 242 233
f 233 242 250
f 245 263 242
f 245 264 263
f 245 243 264
f 246 243 244
f 244 243 245
f 246 267 243
f 229 267 246
f 229 270 267
f 247 270 229
f 247 269 270
f 247 272 269
f 247 273 272
f 248 273 247
f 248 274 273
f 250 274 248
f 263 249 242
f 242 249 250
f 249 251 250
f 250 251 274
f 252 254 253
f 253 254 262
f 252 282 254
f 255 281 252
f 252 281 282
f 255 280 281
f 258 280 236
f 236 280 255
f 258 256 280
f 258 285 256
f 257 285 258
f 257 287 285
f 238 287 257
f 238 260 287
f 261 260 238
f 261 259 260
f 262 259 261
f 262 290 259
f 254 290 262
f 259 290 260
f 263 265 249
f 264 265 263
f 264 292 265
f 264 266 292
f 243 266 264
f 267 268 243
f 243 268 266
f 270 268 267
f 269 271 270
f 270 271 268
f 269 296 271
f 272 296 269
f 272 295 296
f 272 300 295
f 273 300 272
f 273 275 300
f 274 275 273
f 274 276 275
f 251 276 274
f 249 277 251
f 251 277 276
f 265 277 249
f 254 278 290
f 254 304 278
f 282 304 254
f 280 279 281
f 256 279 280
f 281 279 282
f 282 284 304
f 279 284 282
f 256 283 279
f 279 283 284
f 285 283 256
f 285 286 283
f 287 286 285
f 287 306 286
f 287 309 306
f 287 288 309
f 290 288 260
f 260 288 287
f 290 289 288
f 278 289 290
f 265 311 277
f 277 311 276
f 265 291 311
f 292 291 265
f 292 294 291
f 266 293 292
f 292 293 294
f 268 293 266
f 268 297 293
f 295 297 296
f 271 297 268
f 296 297 271
f 295 315 297
f 297 315 293
f 293 315 294
f 300 298 295
f 298 316 295
f 295 316 315
f 300 317 298
f 300 299 317
f 275 299 300
f 275 302 299
f 276 302 275
f 276 301 302
f 311 301 276
f 278 322 289
f 278 303 322
f 304 303 278
f 304 326 303
f 284 326 304
f 284 305 326
f 283 305 284
f 283 327 305
f 286 327 283
f 286 307 327
f 306 307 286
f 306 331 307
f 306 332 331
f 309 332 306
f 309 308 332
f 289 308 288
f 288 308 309
f 322 308 289
f 291 310 311
f 311 310 301
f 291 312 310
f 294 312 291
f 294 334 312
f 315 314 294
f 294 314 334
f 315 313 314
f 314 313 334
f 315 338 313
f 316 338 315
f 298 318 316
f 316 318 338
f 317 318 298
f 317 319 318
f 318 319 338
f 317 320 319
f 299 320 317
f 299 321 320
f 302 321 299
f 302 339 321
f 310 339 301
f 301 339 302
f 322 323 308
f 308 323 332
f 322 325 323
f 303 325 322
f 303 324 325
f 326 324 303
f 326 344 324
f 305 344 326
f 305 328 344
f 327 328 305
f 307 328 327
f 307 329 328
f 331 329 307
f 331 330 329
f 331 348 330
f 332 348 331
f 332 350 348
f 323 350 332
f 310 356 339
f 312 356 310
f 312 333 356
f 334 333 312
f 334 336 333
f 313 336 334
f 338 335 313
f 313 335 336
f 336 335 333
f 338 337 335
f 319 337 338
f 320 340 319
f 319 340 337
f 321 340 320
f 339 353 321
f 356 353 339
f 353 354 321
f 321 354 340
f 340 354 337
f 337 354 335
f 325 341 323
f 323 352 350
f 341 352 323
f 325 342 341
f 324 342 325
f 324 343 342
f 324 345 343
f 344 345 324
f 344 346 345
f 330 346 329
f 328 346 344
f 329 346 328
f 330 347 346
f 346 347 345
f 330 361 347
f 330 362 361
f 348 362 330
f 348 349 362
f 350 349 348
f 352 351 350
f 350 351 349
f 341 351 352
f 356 355 353
f 353 355 354
f 354 355 335
f 335 355 333
f 333 355 356
f 341 363 351
f 342 363 341
f 342 357 363
f 343 357 342
f 343 367 357
f 343 368 367
f 343 359 368
f 345 359 343
f 347 359 345
f 347 358 359
f 361 358 347
f 361 372 358
f 358 372 359
f 361 360 372
f 361 374 360
f 362 374 361
f 362 376 374
f 349 376 362
f 349 378 376
f 349 364 378
f 363 364 351
f 351 364 349
f 363 365 364
f 364 365 378
f 367 365 357
f 357 365 363
f 367 366 365
f 367 379 366
f 368 379 367
f 368 370 379
f 368 369 370
f 359 369 368
f 372 369 359
f 372 371 369
f 369 371 370
f 360 371 372
f 360 373 371
f 360 384 373
f 374 384 360
f 374 375 384
f 376 375 374
f 376 385 375
f 378 385 376
f 378 377 385
f 365 377 378
f 366 377 365
f 366 386 377
f 366 389 386
f 379 389 366
f 379 390 389
f 370 390 379
f 371 380 370
f 373 380 371
f 370 392 390
f 370 381 392
f 380 381 370
f 373 383 380
f 384 383 373
f 384 382 383
f 375 382 384
f 375 396 382
f 385 396 375
f 385 388 396
f 385 387 388
f 377 387 385
f 386 387 377
f 386 398 387
f 387 398 388
f 389 398 386
f 389 399 398
f 390 399 389
f 390 401 399
f 390 391 401
f 392 391 390
f 380 394 381
f 383 394 380
f 382 394 383
f 392 404 391
f 381 404 392
f 381 393 404
f 394 393 381
f 382 405 394
f 382 395 405
f 388 395 396
f 396 395 382
f 388 409 395
f 388 397 409
f 399 397 398
f 398 397 388
f 401 397 399
f 401 410 397
f 397 410 409
f 401 400 410
f 391 400 401
f 391 411 400
f 404 412 391
f 391 412 411
f 394 402 393
f 405 402 394
f 404 403 412
f 404 406 403
f 393 406 404
f 402 406 393
f 405 407 402
f 402 407 406
f 405 415 407
f 395 415 405
f 395 408 415
f 409 408 395
f 409 416 408
f 400 416 410
f 410 416 409
f 400 417 416
f 411 417 400
f 412 418 411
f 411 418 417
f 412 419 418
f 403 419 412
f 403 413 419
f 403 423 413
f 406 423 403
f 406 425 423
f 406 414 425
f 415 414 407
f 407 414 406
f 415 426 414
f 416 426 408
f 408 426 415
f 416 427 426
f 417 427 416
f 418 431 417
f 417 431 427
f 418 429 431
f 419 429 418
f 419 420 429
f 419 433 420
f 413 433 419
f 413 437 433
f 422 437 413
f 413 421 422
f 423 421 413
f 425 421 423
f 425 424 421
f 426 424 414
f 414 424 425
f 426 428 424
f 427 428 426
f 431 428 427
f 431 430 428
f 429 430 431
f 429 432 430
f 420 432 429
f 433 440 420
f 420 434 432
f 440 434 420
f 437 435 433
f 433 435 440
f 422 436 437
f 421 436 422
f 437 444 435
f 437 445 444
f 436 445 437
f 421 438 436
f 428 438 424
f 424 438 421
f 428 450 438
f 430 450 428
f 430 439 450
f 432 439 430
f 432 451 439
f 434 451 432
f 435 441 440
f 440 443 434
f 441 443 440
f 434 442 451
f 443 442 434
f 435 454 441
f 444 454 435
f 436 448 445
f 450 448 438
f 438 448 436
f 444 446 454
f 445 446 444
f 445 447 446
f 448 447 445
f 450 449 448
f 448 449 447
f 450 452 449
f 442 452 451
f 451 452 439
f 439 452 450
f 441 459 443
f 441 460 459
f 454 460 441
f 443 453 442
f 443 461 453
f 459 461 443
f 442 463 452
f 453 463 442
f 454 464 460
f 454 465 464
f 447 465 446
f 446 465 454
f 447 455 465
f 449 455 447
f 449 457 455
f 463 456 452
f 452 456 449
f 449 456 457
f 460 458 459
f 458 469 459
f 459 469 461
f 460 468 458
f 464 468 460
f 453 462 463
f 461 474 453
f 453 474 462
f 461 475 474
f 469 475 461
f 463 472 456
f 456 472 457
f 462 472 463
f 464 476 468
f 465 476 464
f 465 466 476
f 455 466 465
f 457 466 455
f 472 471 457
f 457 471 466
f 458 467 469
f 458 478 467
f 468 478 458
f 476 478 468
f 469 470 475
f 467 470 469
f 472 482 471
f 462 482 472
f 474 473 462
f 462 473 482
f 474 486 473
f 474 488 486
f 475 488 474
f 475 487 488
f 470 487 475
f 476 477 478
f 471 477 466
f 466 477 476
f 471 484 477
f 482 484 471
f 467 480 470
f 467 491 480
f 478 491 467
f 478 479 491
f 477 479 478
f 484 479 477
f 480 481 470
f 470 481 487
f 482 483 484
f 473 483 482
f 473 485 483
f 486 485 473
f 486 497 485
f 486 496 497
f 487 496 488
f 488 496 486
f 487 495 496
f 481 495 487
f 484 489 479
f 483 489 484
f 485 489 483
f 480 490 481
f 480 493 490
f 491 493 480
f 491 492 493
f 479 492 491
f 489 492 479
f 481 494 495
f 490 494 481
f 493 494 490
f 497 500 485
f 485 500 489
f 489 500 492
f 497 499 500
f 494 499 495
f 495 499 496
f 496 499 497
f 493 498 494
f 494 498 499
f 499 498 500
f 500 498 492
f 492 498 493
